{
  "type": "service_account",
  "project_id": "debt-rearrangement-40fb8",
  "private_key_id": "2465235c839f2e7a531e3e6b9981b386b779c0b2",
  "private_key": "-----BEGIN PRIVATE KEY-----\nMIIEvgIBADANBgkqhkiG9w0BAQEFAASCBKgwggSkAgEAAoIBAQDYDc/DgfzdHINb\npwUK1EVsWUGUEXvEhuiKO3dfU1UrdqL7u3NQgD8B8HBRLyehQGKtMlIcdHBrlPKv\ndCw3dlQOq06fPXvXNZm+W58czdjDcU5ThZ1oO6tlxvGrm4twphis9LZZ2FY6ZR78\nUBJ8k4Y2tkWInLNPDoAlT7ybjFJRDjgHKNFATW7x9XIBTN5GN3kvAkwBFzSHi96r\na+gbS7vjf3UkRi7iwb0cGnBuOOrFenHLWd6Yw5y88MpO2DRDX8wuNNIasBz8eb9k\nXZzvQhNhJiSV89V8ALETpArqkTTQ5/Ht5AT1JWF2fNymdUkBqRjzpj4LbFER37xa\nN3Wo+tytAgMBAAECggEAHZiuww0rKC2qv5hpSWrQuR9KViVFpiNboZa0gJDNfwRj\nyUY2wr/+tvOf/zm4HQ/RNKv1sZjbJEb62RbPTn2y1XDuy+5D6QmaWQhQte/A55e9\nmhVt/a8G3gywYx4OA6LNMzbb8AIsYG16dCfn5bwzy4o74OijwOBZ+kJ/sh3j0jR2\n+XewlBVSd4SutHN08fL1ekdaToB/i2FR+FVajzkOqL8dI7nNXa6xNfm6qZrN2WPK\nmkRp8qcXe6rJX+THQNw3IAwdQ1Um+38n8kbeKIEZbF6kV6xIe+FilEFOdjWag0OO\nclWqn3ppJf02HtQsAJerv5v5mULTj98OJsF+z/p4xQKBgQDyNmut2t9ZHSOKkqje\nUN7aD1N74+9+nVtMrLJgjHO9QMdn4FWFNyfl/awj4R1uMh4e3Qycz+IqrALHb3w4\n6n7QqKQjAqULj20qcVgk5O48zfBbCTWj7boSqGT0uwV2yrjYGT3GKxeJInrJL2fr\n0+SxX149nWIlLEc+uKlo6MCL4wKBgQDkWjOA6d3xueNITdWCi+PjHcIXbz8XfOA0\nV4pUlboRCwPZNfDXO7mBNkfhXz3af8pa1mCG8REjXI3KTEYFW1im19WO715j2Ezm\nRZZyYjuGuoVt0R+ik2v9OSYCx9psdJfHalKN6jMC0Fy2lwJo0dfv8zAP3mzPhCav\nmFhUeN16LwKBgQCCXbwzRRz1z/MzQKDXl9t6rskWY6aiFXvwlvsjcDVTZaxuQpaF\nLxywc4rVfPLkPuFrZzrEpDdtFEwin+TSlZRQJpTBq0i+IiJ1t6/jm7yGyalWtmxC\noU+Hf09nUcotGAvJdDyFjugKDZ7c7kEW82Oh/Fyy+SS8MUrffXDhYHVSVQKBgEBF\nmyV3rb5xwaUCM0wxL40nPQ/3gdyMi1ZwJUE1e098uDKU2hradpYFvymR8wji2wPC\nPxz8EQTQ8h+0ZCjx0vvy1+sJOJoFsW9GuterCnIbYZ7NM4hA0i5NvYMe2T2Ze3bn\nWCEVgBIUr2O9ETKLjam92xM8WYf2/CSETqhH9J6FAoGBANiRAaHj4ro0UCPPQY5y\nbuyb7hnzqlZWQfYm93K/xkGAT+g7eY+FDYytjKW4Rr1kGl4SZF7gVzMNcDavtZT5\nu5O+n/2ic+J91JixR9spBjICF3SaoPtYg0nK/+YX/BRASu6aUj/EVMgDATLNs98A\nldDJo248vZOrkwHJ4pjE6Zfa\n-----END PRIVATE KEY-----\n",
  "client_email": "firebase-adminsdk-ld1wg@debt-rearrangement-40fb8.iam.gserviceaccount.com",
  "client_id": "111320852402666449501",
  "auth_uri": "https://accounts.google.com/o/oauth2/auth",
  "token_uri": "https://oauth2.googleapis.com/token",
  "auth_provider_x509_cert_url": "https://www.googleapis.com/oauth2/v1/certs",
  "client_x509_cert_url": "https://www.googleapis.com/robot/v1/metadata/x509/firebase-adminsdk-ld1wg%40debt-rearrangement-40fb8.iam.gserviceaccount.com"
}
